Data Processing in the Tidyverse
…
- `group_by` paired with `summarise` changes the level of organization of the data&mdash;here from discharge level to patient level

---

# Summarizing by group

```r
disch_grouped_by_patient
```

```
## # A tibble: 102,733 × 194
## # Groups:   VisitLink [48,085]
##    VisitLink   AGE AHOUR ATYPE AWEEKEND DaysToEvent  DIED DISP_X
##        <dbl> <dbl> <dbl> <dbl>    <dbl>       <dbl> <dbl> <chr> 
##  1  15965139    74  1400     1        0       18739     0 01    
##  2  16050018    77  1300     1        0       18655     0 03    
##  3  16050018    77  2300     1        1       18623     0 03    
##  4   2092107    32  2300     1        0       17883     0 01    
##  5   8726364    66  1600     1        0       17252     0 06    
##  6    390742    61  2300     1        0       18869     0 06    
##  7    390742    61     0     1        1       18844     0 01    
##  8  24417038    62  2200     1        1       19810     0 01    
##  9  24344014    67   600     1        0       20164     0 01    
## 10  22892274     9   900     3        0       16852     0 01    
## # … with 102,723 more rows, and 186 more variables: DISPUB04 <dbl>,
## #   DISPUNIFORM <dbl>, DQTR <dbl>, DSHOSPID <chr>, DXPOA1 <chr>,
## #   DXPOA2 <chr>, DXPOA3 <chr>, DXPOA4 <chr>, DXPOA5 <chr>,
## #   DXPOA6 <chr>, DXPOA7 <chr>, DXPOA8 <chr>, DXPOA9 <chr>,
## #   DXPOA10 <chr>, DXPOA11 <chr>, DXPOA12 <chr>, DXPOA13 <chr>,
## #   DXPOA14 <chr>, DXPOA15 <chr>, DXPOA16 <chr>, DXPOA17 <chr>,
## #   DXPOA18 <chr>, DXPOA19 <chr>, DXPOA20 <chr>, DXPOA21 <chr>, …
```

---

# Summarizing by group

```r
p_dischcharge_counts
```

```
## # A tibble: 48,085 × 2
##    VisitLink dischcharge_count
##        <dbl>             <int>
##  1       365                 3
##  2       626                 3
##  3       641                 4
##  4       769                 1
##  5       846                 8
##  6       951                 9
##  7      1304                 1
##  8      1411                 2
##  9      1463                 3
## 10      2556                 1
## # … with 48,075 more rows
```
…
